causalestimators - Matching
…
matched <- matchit(
  A ~ L1 + L2,
  data = data, 
  distance = "glm",
  method = "nearest"
)

The code below appends the matching weights to the data. Units with match_weight == 1 are matched, while those with match_weight == 0 are unmatched.

# Append matching weights to the data
with_weights <- data |>
  mutate(match_weight = matched$weights) |>
  select(A, L1, L2, Y, match_weight)

# A tibble: 100 × 5
       A      L1       L2      Y match_weight
   <int>   <dbl>    <dbl>  <dbl>        <dbl>
 1     0  0.621   0.182    0.168            0
 2     0 -1.27   -0.930   -3.31             0
 3     1  3.13    0.506    3.11             1
 4     0  0.0818  2.70     0.707            1
 5     0 -0.596   1.33     1.84             0
 6     0 -2.51    1.43     0.378            0
 7     0 -0.452   2.29     0.884            0
 8     0  1.17   -0.00888  3.30             0
 9     0  0.155   1.35    -1.31             0
10     0  1.13   -0.511    0.310            0
# ℹ 90 more rows
…
