causalestimators - Inverse Probability of Treatment Weighting
…
predicted <- data |>
  # Predict the probabilities that A = 1 and A = 0
  mutate(
    p_A_equals_1 = predict(model, type = "response"),
    p_A_equals_0 = 1 - p_A_equals_1
  ) |>
  # Assign the propensity score based on the observed treatment
  mutate(
    pi = case_when(
      A == 1 ~ p_A_equals_1,
      A == 0 ~ p_A_equals_0
    )
  )

# A tibble: 500 × 10
        L1     L2      Y0    Y1 propensity_score     A       Y p_A_equals_1
     <dbl>  <dbl>   <dbl> <dbl>            <dbl> <int>   <dbl>        <dbl>
1  0.00304  1.03   0.677   1.59          0.276       0  0.677       0.300  
2 -2.35    -1.66  -4.09   -3.53          0.00244     0 -4.09        0.00136
3  0.104   -0.912  0.0659  1.31          0.0569      0  0.0659      0.0455 
# ℹ 497 more rows
# ℹ 2 more variables: p_A_equals_0 <dbl>, pi <dbl>
…
